# H125 samples
#------------------------------

PowhegPy8_ggH125
PowhegPy8_NNLOPS_ggH125
PowhegPy8_VBFH125
PowhegPy8_NNPDF30_VBFH125
Pythia8_WH125
PowhegPy8_WmH125J
PowhegPy8_WpH125J
PowhegPy8_ZH125J
Pythia8_ZH125
aMCnloPy8_ttH125

aMCnloPy8_bbH125_yb2
aMCnloPy8_bbH125_ybyt

MGHwpp_tHjb125_yt_minus1
MGHwpp_tHjb125_yt_plus1
MGHwpp_tHjb125_yt_plus2

MGPy8_tHjb125_yt_minus1
MGPy8_tHjb125_yt_plus1
MGPy8_tHjb125_yt_plus2

aMCnloHwpp_tWH125_yt_plus2
aMCnloHwpp_tWH125_yt_plus1
aMCnloHwpp_tWH125_yt_minus1


# mono-Higgs samples
#------------------------------

MGPy8_zphxx_gg_mzp10_mx1
MGPy8_zphxx_gg_mzp10_mx10
MGPy8_zphxx_gg_mzp10_mx50
MGPy8_zphxx_gg_mzp10_mx150
MGPy8_zphxx_gg_mzp20_mx1
MGPy8_zphxx_gg_mzp20_mx10
MGPy8_zphxx_gg_mzp20_mx50
MGPy8_zphxx_gg_mzp20_mx150
MGPy8_zphxx_gg_mzp50_mx1
MGPy8_zphxx_gg_mzp50_mx10
MGPy8_zphxx_gg_mzp50_mx50
MGPy8_zphxx_gg_mzp50_mx150
MGPy8_zphxx_gg_mzp100_mx1
MGPy8_zphxx_gg_mzp100_mx10
MGPy8_zphxx_gg_mzp100_mx50
MGPy8_zphxx_gg_mzp100_mx150
MGPy8_zphxx_gg_mzp200_mx1
MGPy8_zphxx_gg_mzp200_mx10
MGPy8_zphxx_gg_mzp200_mx50
MGPy8_zphxx_gg_mzp200_mx150
MGPy8_zphxx_gg_mzp295_mx150
MGPy8_zphxx_gg_mzp300_mx1
MGPy8_zphxx_gg_mzp300_mx10
MGPy8_zphxx_gg_mzp300_mx50
MGPy8_zphxx_gg_mzp500_mx1
MGPy8_zphxx_gg_mzp500_mx10
MGPy8_zphxx_gg_mzp500_mx50
MGPy8_zphxx_gg_mzp500_mx150
MGPy8_zphxx_gg_mzp1000_mx1
MGPy8_zphxx_gg_mzp1000_mx10
MGPy8_zphxx_gg_mzp1000_mx50
MGPy8_zphxx_gg_mzp1000_mx150
MGPy8_zphxx_gg_mzp1000_mx1000
MGPy8_zphxx_gg_mzp1995_mx1000
MGPy8_zphxx_gg_mzp2000_mx1
MGPy8_zphxx_gg_mzp10000_mx1

MGPy8_zp2hdmxx_gg_mzp400_mA200
MGPy8_zp2hdmxx_gg_mzp600_mA200
MGPy8_zp2hdmxx_gg_mzp600_mA300
MGPy8_zp2hdmxx_gg_mzp600_mA400
MGPy8_zp2hdmxx_gg_mzp600_mA500
MGPy8_zp2hdmxx_gg_mzp800_mA200
MGPy8_zp2hdmxx_gg_mzp800_mA300
MGPy8_zp2hdmxx_gg_mzp800_mA400
MGPy8_zp2hdmxx_gg_mzp800_mA500
MGPy8_zp2hdmxx_gg_mzp800_mA600
MGPy8_zp2hdmxx_gg_mzp1000_mA200
MGPy8_zp2hdmxx_gg_mzp1000_mA300
MGPy8_zp2hdmxx_gg_mzp1000_mA400
MGPy8_zp2hdmxx_gg_mzp1000_mA500
MGPy8_zp2hdmxx_gg_mzp1000_mA600
MGPy8_zp2hdmxx_gg_mzp1000_mA700
MGPy8_zp2hdmxx_gg_mzp1000_mA800
MGPy8_zp2hdmxx_gg_mzp1200_mA200
MGPy8_zp2hdmxx_gg_mzp1200_mA300
MGPy8_zp2hdmxx_gg_mzp1200_mA400
MGPy8_zp2hdmxx_gg_mzp1200_mA500
MGPy8_zp2hdmxx_gg_mzp1200_mA600
MGPy8_zp2hdmxx_gg_mzp1200_mA700
MGPy8_zp2hdmxx_gg_mzp1200_mA800
MGPy8_zp2hdmxx_gg_mzp1400_mA200
MGPy8_zp2hdmxx_gg_mzp1400_mA300
MGPy8_zp2hdmxx_gg_mzp1400_mA400
MGPy8_zp2hdmxx_gg_mzp1400_mA500
MGPy8_zp2hdmxx_gg_mzp1400_mA600
MGPy8_zp2hdmxx_gg_mzp1400_mA700
MGPy8_zp2hdmxx_gg_mzp1400_mA800


# FCNC samples
#------------------------------

aMCnloPy8_Q2cHgamgambWmln
aMCnloPy8_Q2cHgamgambWpln
aMCnloPy8_Q2cHgamgambWmqq
aMCnloPy8_Q2cHgamgambWpqq
aMCnloPy8_Q2uHgamgambWmln
aMCnloPy8_Q2uHgamgambWpln
aMCnloPy8_Q2uHgamgambWmqq
aMCnloPy8_Q2uHgamgambWpqq


#  Heavy-scalar model
#------------------------------
MGPy8_HHDMmr275mx60br50_DMgamgam
