# H125
# ------------------------------------------------------------------------------

PowhegPy8_NNLOPS_ggH125
PowhegPy8_WmH125J
PowhegPy8_WpH125J
PowhegPy8_ggZH125
PowhegPy8_ttH125
aMCnloHwpp_tWH125_yt_plus1
PowhegPy8_bbH
MGPy8_ZBhb800LH01K05
MGPy8_ZBhb900LH01K01
MGPy8_ZBhb900LH01K05
MGPy8_ZBhb900LH01K10
MGPy8_ZBhb1000LH01K0
MGPy8_ZBhb1200LH01K0
MGPy8_ZBhb1400LH01K0
MGPy8_ZBhb1600LH01K0    
