# H125
# ------------------------------------------------------------------------------

PowhegPy8_NNLOPS_ggH125
## PowhegPy8_WmH125J
PowhegPy8_WpH125J
PowhegPy8_ZH125J
PowhegPy8_ggZH125
aMCnloPy8_bbH125_yb2
aMCnloPy8_bbH125_ybyt
aMCnloHwpp_tWH125_yt_plus1
PowhegPy8_bbH
